{
  "$schema": "https://developer.microsoft.com/json-schemas/spfx-build/deploy-azure-storage.schema.json",
  "workingDir": "./temp/deploy/",
  "account": "<!-- STORAGE ACCOUNT NAME -->",
  "container": "pzm-app",
  "accessKey": "<!-- ACCESS KEY -->"
}